List Branches of the sap Repository — list_apps • shinypak
…
It lists all branches of the cloned repository

It separates the branch names into source and branch_name

It cleans up by deleting the temporary directory and restoring the original
working directory

Note that the function currently does not use the regex parameter to filter
branches. This parameter can be implemented in future versions to allow branch
filtering based on regular expressions.

    Examples

list_apps()
#> # A tibble: 40 × 2
#>    branch              last_updated       
#>    <chr>               <dttm>             
#>  1 01_whole-app-game   2025-03-11 13:28:36
#>  2 02.1_shiny-app      2025-03-11 13:30:37
#>  3 02.2_movies-app     2025-03-11 13:42:22
#>  4 02.3_proj-app       2025-03-11 13:43:18
#>  5 03.1_description    2025-03-11 13:44:18
#>  6 03.2_rproj          2025-03-11 13:44:55
#>  7 03.3_create-package 2025-03-11 13:45:29
#>  8 04_devtools         2025-03-11 13:46:59
#>  9 05_roxygen2         2025-03-11 13:48:24
#> 10 06.1_exports        2025-03-11 13:49:18
#> # ℹ 30 more rows
…
